
logout = {"EmplContID":"100","EmplContDeviceLogID":"undefined"}
logout = {"EmplContID":"33","EmplContDeviceLogID":"undefined"}
logout = {"EmplContID":null,"EmplContDeviceLogID":null}
logout = {"EmplContID":"33","EmplContDeviceLogID":"undefined"}
logout = {"EmplContID":"33","EmplContDeviceLogID":"undefined"}
logout = {"EmplContID":"33","EmplContDeviceLogID":"undefined"}
logout = {"EmplContID":"33","EmplContDeviceLogID":"undefined"}
logout = {"EmplContID":"33","EmplContDeviceLogID":"undefined"}
logout = {"EmplContID":"33","EmplContDeviceLogID":"undefined"}
logout = {"EmplContID":"33","EmplContDeviceLogID":"undefined"}
logout = {"EmplContID":"33","EmplContDeviceLogID":"undefined"}
logout = {"EmplContID":"33","EmplContDeviceLogID":"undefined"}
logout = {"EmplContID":"33","EmplContDeviceLogID":"undefined"}
logout = {"EmplContID":"33","EmplContDeviceLogID":"undefined"}
logout = {"EmplContID":"33","EmplContDeviceLogID":"undefined"}
logout = {"EmplContID":"33","EmplContDeviceLogID":"undefined"}
logout = {"EmplContID":"33","EmplContDeviceLogID":"undefined"}
logout = {"EmplContID":"33","EmplContDeviceLogID":"undefined"}
logout = {"EmplContID":"33","EmplContDeviceLogID":"undefined"}
logout = {"EmplContID":"33","EmplContDeviceLogID":"undefined"}
logout = {"EmplContID":"33","EmplContDeviceLogID":"undefined"}
logout = {"EmplContID":"33","EmplContDeviceLogID":"undefined"}