
Device = {"Active":"Y","DeviceToken":"d26R9S29SX2iT9otgTFJit:APA91bEVR_8W-E0EHvUD4zWgTlPfVCJqVcaVrGxvAEa-HT7YHI1Ees8LQ56AW-4Ywxkyt5Or89zajYFc6L_zU4SDpqohZu2NurcsT00VMNxNgBNXtb1YShngwVNGA7VrnflvjlDZYkxa","EmplContDeviceLogID":"1","EmplContID":"33","MobilePlatform":"Android"}
mobj.DeviceToken = d26R9S29SX2iT9otgTFJit:APA91bEVR_8W-E0EHvUD4zWgTlPfVCJqVcaVrGxvAEa-HT7YHI1Ees8LQ56AW-4Ywxkyt5Or89zajYFc6L_zU4SDpqohZu2NurcsT00VMNxNgBNXtb1YShngwVNGA7VrnflvjlDZYkxa
mobj.EmplContDeviceLogID = 1
mobj.EmplContID = 33
mobj.MobilePlatform = Android
ds.Tables[0].Rows.Count 1
Device = {"Active":"Y","DeviceToken":"d26R9S29SX2iT9otgTFJit:APA91bEVR_8W-E0EHvUD4zWgTlPfVCJqVcaVrGxvAEa-HT7YHI1Ees8LQ56AW-4Ywxkyt5Or89zajYFc6L_zU4SDpqohZu2NurcsT00VMNxNgBNXtb1YShngwVNGA7VrnflvjlDZYkxa","EmplContDeviceLogID":"1","EmplContID":"100","MobilePlatform":"Android"}
mobj.DeviceToken = d26R9S29SX2iT9otgTFJit:APA91bEVR_8W-E0EHvUD4zWgTlPfVCJqVcaVrGxvAEa-HT7YHI1Ees8LQ56AW-4Ywxkyt5Or89zajYFc6L_zU4SDpqohZu2NurcsT00VMNxNgBNXtb1YShngwVNGA7VrnflvjlDZYkxa
mobj.EmplContDeviceLogID = 1
mobj.EmplContID = 100
mobj.MobilePlatform = Android
ds.Tables[0].Rows.Count 1
Device = {"Active":"Y","DeviceToken":"d26R9S29SX2iT9otgTFJit:APA91bEVR_8W-E0EHvUD4zWgTlPfVCJqVcaVrGxvAEa-HT7YHI1Ees8LQ56AW-4Ywxkyt5Or89zajYFc6L_zU4SDpqohZu2NurcsT00VMNxNgBNXtb1YShngwVNGA7VrnflvjlDZYkxa","EmplContDeviceLogID":"1","EmplContID":"100","MobilePlatform":"Android"}
mobj.DeviceToken = d26R9S29SX2iT9otgTFJit:APA91bEVR_8W-E0EHvUD4zWgTlPfVCJqVcaVrGxvAEa-HT7YHI1Ees8LQ56AW-4Ywxkyt5Or89zajYFc6L_zU4SDpqohZu2NurcsT00VMNxNgBNXtb1YShngwVNGA7VrnflvjlDZYkxa
mobj.EmplContDeviceLogID = 1
mobj.EmplContID = 100
mobj.MobilePlatform = Android
ds.Tables[0].Rows.Count 1
Device = {"Active":"Y","DeviceToken":"d26R9S29SX2iT9otgTFJit:APA91bEVR_8W-E0EHvUD4zWgTlPfVCJqVcaVrGxvAEa-HT7YHI1Ees8LQ56AW-4Ywxkyt5Or89zajYFc6L_zU4SDpqohZu2NurcsT00VMNxNgBNXtb1YShngwVNGA7VrnflvjlDZYkxa","EmplContDeviceLogID":"1","EmplContID":"100","MobilePlatform":"Android"}
mobj.DeviceToken = d26R9S29SX2iT9otgTFJit:APA91bEVR_8W-E0EHvUD4zWgTlPfVCJqVcaVrGxvAEa-HT7YHI1Ees8LQ56AW-4Ywxkyt5Or89zajYFc6L_zU4SDpqohZu2NurcsT00VMNxNgBNXtb1YShngwVNGA7VrnflvjlDZYkxa
mobj.EmplContDeviceLogID = 1
mobj.EmplContID = 100
mobj.MobilePlatform = Android
ds.Tables[0].Rows.Count 1