
From: "Partner Connect" <partnerconnect@godrejproperties.com> Message.Subject: RERA Details Change Request strtoEmail: shreyaskudav@nimapinfotech.com Message.Body: <div>Dear Shreyas Kudav,</div> <div>&nbsp;</div> <div> Your request to add new RERA Details has been approved. </div> <div>&nbsp;</div> <div>This is an auto-generated mail, please do not reply to this message.</div> <div><br />Thanks &amp; Regards<br />Godrej Partner Connect Team</div>
From: "Partner Connect" <partnerconnect@godrejproperties.com> Message.Subject: RERA & GST Details Change Request strtoEmail: shreyaskudav@nimapinfotech.com Message.Body: <div>Dear Shreyas Kudav,</div> <div>&nbsp;</div> <div> Your request to change your RERA details has been rejected. </div> <div>&nbsp;</div> Reason : The reason<div>&nbsp;</div> <div>This is an auto-generated mail, please do not reply to this message.</div> <div><br />Thanks &amp; Regards<br />Godrej Partner Connect Team</div>
From: "Partner Connect" <partnerconnect@godrejproperties.com> Message.Subject: RERA Details Change Request strtoEmail: shreyaskudav@nimapinfotech.com Message.Body: <div>Dear Shreyas Kudav,</div> <div>&nbsp;</div> <div> Your request to add new RERA Details has been approved. </div> <div>&nbsp;</div> <div>This is an auto-generated mail, please do not reply to this message.</div> <div><br />Thanks &amp; Regards<br />Godrej Partner Connect Team</div>